[
    {
        "id_maquina": "PQ0",
        "estado_red": "offline",
        "estado_maquina": "inactiva",
        "duracion_paro": 0
    },
    {
        "id_maquina": "PQ1",
        "estado_red": "online",
        "estado_maquina": "activa",
        "duracion_paro": 0
    },
    {
        "id_maquina": "PQ2",
        "estado_red": "offline",
        "estado_maquina": "inactiva",
        "duracion_paro": 0
    },
    {
        "id_maquina": "PQ3",
        "estado_red": "online",
        "estado_maquina": "activa",
        "duracion_paro": 0
    },
    {
        "id_maquina": "PQ4",
        "estado_red": "online",
        "estado_maquina": "activa",
        "duracion_paro": 0
    },
    {
        "id_maquina": "PQ5",
        "estado_red": "online",
        "estado_maquina": "activa",
        "duracion_paro": 0
    },
    {
        "id_maquina": "PQ6",
        "estado_red": "offline",
        "estado_maquina": "inactiva",
        "duracion_paro": 0
    },
    {
        "id_maquina": "PQ10",
        "estado_red": "online",
        "estado_maquina": "activa",
        "duracion_paro": 0
    },
    {
        "id_maquina": "D1",
        "estado_red": "online",
        "estado_maquina": "activa",
        "duracion_paro": 0
    },
    {
        "id_maquina": "D2",
        "estado_red": "online",
        "estado_maquina": "activa",
        "duracion_paro": 0
    },
    {
        "id_maquina": "D3",
        "estado_red": "online",
        "estado_maquina": "activa",
        "duracion_paro": 0
    },
    {
        "id_maquina": "D4",
        "estado_red": "online",
        "estado_maquina": "activa",
        "duracion_paro": 0
    }
]
