[
    {
        "Codigo_Maquina": "EF0",
        "Descrp_Maquina": "Enfardadora EF0",
        "Estado": 1,
        "Codigo_Proceso": "PO_PQT"
    },
    {
        "Codigo_Maquina": "EF1",
        "Descrp_Maquina": "Enfardadora EF1",
        "Estado": 1,
        "Codigo_Proceso": "PO_PQT"
    },
    {
        "Codigo_Maquina": "EF2",
        "Descrp_Maquina": "Enfardadora EF2",
        "Estado": 1,
        "Codigo_Proceso": "PO_PQT"
    },
    {
        "Codigo_Maquina": "EF3",
        "Descrp_Maquina": "Enfardadora EF3",
        "Estado": 1,
        "Codigo_Proceso": "PO_PQT"
    },
    {
        "Codigo_Maquina": "EF4",
        "Descrp_Maquina": "Enfardadora EF4",
        "Estado": 1,
        "Codigo_Proceso": "PO_PQT"
    },
    {
        "Codigo_Maquina": "EF5",
        "Descrp_Maquina": "Enfardadora EF5",
        "Estado": 1,
        "Codigo_Proceso": "PO_PQT"
    },
    {
        "Codigo_Maquina": "EF6",
        "Descrp_Maquina": "Enfardadora EF6",
        "Estado": 1,
        "Codigo_Proceso": "PO_PQT"
    },
    {
        "Codigo_Maquina": "EF10",
        "Descrp_Maquina": "Enfardadora EF10",
        "Estado": 1,
        "Codigo_Proceso": "PO_PQT"
    },
    {
        "Codigo_Maquina": "PQ0",
        "Descrp_Maquina": "Paqueteadora PQ0",
        "Estado": 1,
        "Codigo_Proceso": "PO_PQT"
    },
    {
        "Codigo_Maquina": "PQ1",
        "Descrp_Maquina": "Paqueteadora PQ1",
        "Estado": 0,
        "Codigo_Proceso": "PO_PQT"
    },
    {
        "Codigo_Maquina": "PQ2",
        "Descrp_Maquina": "Paqueteadora PQ2",
        "Estado": 1,
        "Codigo_Proceso": "PO_PQT"
    },
    {
        "Codigo_Maquina": "PQ3",
        "Descrp_Maquina": "Paqueteadora PQ3",
        "Estado": 1,
        "Codigo_Proceso": "PO_PQT"
    },
    {
        "Codigo_Maquina": "PQ4",
        "Descrp_Maquina": "Paqueteadora PQ4",
        "Estado": 2,
        "Codigo_Proceso": "PO_PQT"
    },
    {
        "Codigo_Maquina": "PQ5",
        "Descrp_Maquina": "Paqueteadora PQ5",
        "Estado": 1,
        "Codigo_Proceso": "PO_PQT"
    },
    {
        "Codigo_Maquina": "PQ6",
        "Descrp_Maquina": "Paqueteadora PQ6",
        "Estado": 1,
        "Codigo_Proceso": "PO_PQT"
    },
    {
        "Codigo_Maquina": "PQ10",
        "Descrp_Maquina": "Paqueteadora PQ10",
        "Estado": 0,
        "Codigo_Proceso": "PO_PQT"
    },
    {
        "Codigo_Maquina": "PX1",
        "Descrp_Maquina": "Extruder PX1",
        "Estado": 1,
        "Codigo_Proceso": "PO_EXT"
    },
    {
        "Codigo_Maquina": "PX2",
        "Descrp_Maquina": "Extruder PX2",
        "Estado": 1,
        "Codigo_Proceso": "PO_EXT"
    },
    {
        "Codigo_Maquina": "PX3",
        "Descrp_Maquina": "Extruder PX3",
        "Estado": 1,
        "Codigo_Proceso": "PO_EXT"
    },
    {
        "Codigo_Maquina": "D1",
        "Descrp_Maquina": "Ensacadora 1",
        "Estado": 1,
        "Codigo_Proceso": "PO_PQT"
    },
    {
        "Codigo_Maquina": "D2",
        "Descrp_Maquina": "Ensacadora 2",
        "Estado": 1,
        "Codigo_Proceso": "PO_PQT"
    },
    {
        "Codigo_Maquina": "D3",
        "Descrp_Maquina": "Ensacadora 3",
        "Estado": 1,
        "Codigo_Proceso": "PO_PQT"
    },
    {
        "Codigo_Maquina": "D4",
        "Descrp_Maquina": "Ensacadora 4",
        "Estado": 1,
        "Codigo_Proceso": "PO_PQT"
    }
]